<svg xmlns="http://www.w3.org/2000/svg" width="720" height="540">
 <!-- Created with Image Occlusion Enhanced -->
 <g>
  <title>Labels</title>
 </g>
 <g>
  <title>Masks</title>
  <rect id="171ccc5a9a5f4921b92cf8b2738c437e-ao-1" height="74.28571" width="89.52381" y="102.85714" x="240.95238" stroke="#2D2D2D" fill="#FFEBA2"/>
  <rect id="171ccc5a9a5f4921b92cf8b2738c437e-ao-2" height="73.33333" width="92.38095" y="239.04762" x="315.2381" stroke="#2D2D2D" fill="#FFEBA2"/>
  <rect id="171ccc5a9a5f4921b92cf8b2738c437e-ao-3" height="73.33333" width="135.2381" y="105.71429" x="400" stroke="#2D2D2D" fill="#FFEBA2"/>
  <rect id="171ccc5a9a5f4921b92cf8b2738c437e-ao-4" height="73.33333" width="87.61905" y="176.19048" x="552.38095" stroke="#2D2D2D" fill="#FFEBA2"/>
  <rect id="171ccc5a9a5f4921b92cf8b2738c437e-ao-5" height="97.14286" width="96.19048" y="435.2381" x="539.04762" stroke="#2D2D2D" fill="#FFEBA2"/>
  <rect id="171ccc5a9a5f4921b92cf8b2738c437e-ao-6" height="71.42857" width="114.28571" y="377.14286" x="239.04762" stroke="#2D2D2D" fill="#FFEBA2"/>
  <rect id="171ccc5a9a5f4921b92cf8b2738c437e-ao-7" height="73.33333" width="131.42857" y="230.47619" x="122.85714" stroke="#2D2D2D" fill="#FFEBA2"/>
  <rect id="171ccc5a9a5f4921b92cf8b2738c437e-ao-8" height="72.38095" width="127.61905" y="460.95238" x="139.04762" stroke="#2D2D2D" fill="#FFEBA2"/>
  <rect id="171ccc5a9a5f4921b92cf8b2738c437e-ao-9" height="73.33333" width="80.95238" y="407.61905" x="7.61905" stroke="#2D2D2D" fill="#FFEBA2"/>
 </g>
</svg>