<svg xmlns="http://www.w3.org/2000/svg" width="720" height="540">
 <!-- Created with Image Occlusion Enhanced -->
 <g>
  <title>Labels</title>
 </g>
 <g>
  <title>Masks</title>
  <rect id="248a4e0d120f4440a2e3b430ca8d3569-ao-1" height="69.52381" width="138.09524" y="120.95238" x="120" stroke="#2D2D2D" fill="#FFEBA2"/>
  <rect id="248a4e0d120f4440a2e3b430ca8d3569-ao-2" height="72.38095" width="84.7619" y="211.42857" x="127.61905" stroke="#2D2D2D" fill="#FFEBA2"/>
  <rect id="248a4e0d120f4440a2e3b430ca8d3569-ao-3" height="73.33333" width="82.85714" y="456.19048" x="160.95238" stroke="#2D2D2D" fill="#FFEBA2"/>
  <rect id="248a4e0d120f4440a2e3b430ca8d3569-ao-4" height="71.42857" width="115.2381" y="460.95238" x="273.33333" stroke="#2D2D2D" fill="#FFEBA2"/>
  <rect id="248a4e0d120f4440a2e3b430ca8d3569-ao-5" height="71.42857" width="83.80952" y="462.85714" x="437.14286" stroke="#2D2D2D" fill="#FFEBA2"/>
  <rect id="248a4e0d120f4440a2e3b430ca8d3569-ao-6" height="73.33333" width="109.52381" y="240.95238" x="326.66667" stroke="#2D2D2D" fill="#FFEBA2"/>
  
  <rect id="248a4e0d120f4440a2e3b430ca8d3569-ao-8" height="73.33333" width="110.47619" y="137.14286" x="606.66667" stroke="#2D2D2D" fill="#FFEBA2"/>
  <rect id="248a4e0d120f4440a2e3b430ca8d3569-ao-9" height="72.38095" width="99.04762" y="27.61905" x="451.42857" stroke="#2D2D2D" fill="#FFEBA2"/>
 </g>
</svg>