<svg xmlns="http://www.w3.org/2000/svg" width="720" height="405">
 <!-- Created with Image Occlusion Enhanced -->
 <g>
  <title>Labels</title>
 </g>
 <g>
  <title>Masks</title>
  <rect stroke="#2D2D2D" id="314fc3dcb8964081aa434be9b4e8a187-ao-1" height="29.75206" width="68.59504" y="295.82647" x="6.44626" fill="#FFEBA2"/>
  <rect stroke="#2D2D2D" id="314fc3dcb8964081aa434be9b4e8a187-ao-2" height="28.09918" width="71.07438" y="297.47936" x="85.7851" fill="#FF7E7E" class="qshape"/>
  <rect stroke="#2D2D2D" id="314fc3dcb8964081aa434be9b4e8a187-ao-3" height="32.23141" width="97.52066" y="294.17357" x="175.86775" fill="#FFEBA2"/>
  <rect stroke="#2D2D2D" id="314fc3dcb8964081aa434be9b4e8a187-ao-4" height="28.92562" width="95.86777" y="296.65291" x="289.09089" fill="#FFEBA2"/>
  <rect stroke="#2D2D2D" id="314fc3dcb8964081aa434be9b4e8a187-ao-5" height="30.57852" width="73.55372" y="294.17357" x="424.62809" fill="#FFEBA2"/>
  <rect stroke="#2D2D2D" id="314fc3dcb8964081aa434be9b4e8a187-ao-6" height="28.92562" width="105.78513" y="247.89258" x="520.49586" fill="#FFEBA2"/>
  <rect stroke="#2D2D2D" id="314fc3dcb8964081aa434be9b4e8a187-ao-7" height="29.75207" width="99.17356" y="156.15704" x="520.49586" fill="#FFEBA2"/>
  <rect id="314fc3dcb8964081aa434be9b4e8a187-ao-8" height="30.57851" width="65.28926" y="9.87604" x="518.01652" stroke="#2D2D2D" fill="#FFEBA2"/>
  <rect id="314fc3dcb8964081aa434be9b4e8a187-ao-9" height="30.57851" width="88.42975" y="9.0496" x="625.45454" stroke-linecap="null" stroke-linejoin="null" stroke-dasharray="null" stroke="#2D2D2D" fill="#FFEBA2"/>
 </g>
</svg>