<svg xmlns="http://www.w3.org/2000/svg" width="720" height="540">
 <!-- Created with Image Occlusion Enhanced -->
 <g>
  <title>Labels</title>
 </g>
 <g>
  <title>Masks</title>
  <rect stroke="#2D2D2D" id="34d06e38c47e4bc2ac69a556c60bfaf0-ao-1" height="96.61017" width="230.50848" y="780.67791" x="5.42375" stroke-linecap="null" stroke-linejoin="null" stroke-dasharray="null" fill="#FFEBA2"/>
  <rect id="34d06e38c47e4bc2ac69a556c60bfaf0-ao-2" height="122.0339" width="144.0678" y="643.38977" x="178.30511" stroke-linecap="null" stroke-linejoin="null" stroke-dasharray="null" stroke="#2D2D2D" fill="#FFEBA2"/>
  <rect id="34d06e38c47e4bc2ac69a556c60bfaf0-ao-3" height="91.52543" width="142.37289" y="768.81351" x="337.62715" stroke-linecap="null" stroke-linejoin="null" stroke-dasharray="null" stroke="#2D2D2D" fill="#FFEBA2"/>
  <rect id="34d06e38c47e4bc2ac69a556c60bfaf0-ao-4" height="96.61017" width="118.64407" y="790.8474" x="535.93224" stroke-linecap="null" stroke-linejoin="null" stroke-dasharray="null" stroke="#2D2D2D" fill="#FFEBA2"/>
  
  <rect id="34d06e38c47e4bc2ac69a556c60bfaf0-ao-6" height="93.33333" width="110.47619" y="314.28571" x="10.47619" stroke-linecap="null" stroke-linejoin="null" stroke-dasharray="null" stroke="#2D2D2D" fill="#FFEBA2"/>
  <rect id="34d06e38c47e4bc2ac69a556c60bfaf0-ao-7" height="71.42857" width="122.85714" y="454.28571" x="17.14286" stroke-linecap="null" stroke-linejoin="null" stroke-dasharray="null" stroke="#2D2D2D" fill="#FFEBA2"/>
  <rect id="34d06e38c47e4bc2ac69a556c60bfaf0-ao-8" height="73.33333" width="121.90476" y="463.80952" x="223.80952" stroke-linecap="null" stroke-linejoin="null" stroke-dasharray="null" stroke="#2D2D2D" fill="#FFEBA2"/>
  <rect id="34d06e38c47e4bc2ac69a556c60bfaf0-ao-9" height="75.2381" width="86.66667" y="458.09524" x="458.09524" stroke-linecap="null" stroke-linejoin="null" stroke-dasharray="null" stroke="#2D2D2D" fill="#FFEBA2"/>
  <rect id="34d06e38c47e4bc2ac69a556c60bfaf0-ao-10" height="72.38095" width="151.42857" y="438.09524" x="562.85714" stroke-linecap="null" stroke-linejoin="null" stroke-dasharray="null" stroke="#2D2D2D" fill="#FFEBA2"/>
  <rect id="34d06e38c47e4bc2ac69a556c60bfaf0-ao-11" height="75.2381" width="83.80952" y="272.38095" x="628.57143" stroke-linecap="null" stroke-linejoin="null" stroke-dasharray="null" stroke="#2D2D2D" fill="#FFEBA2"/>
  <rect id="34d06e38c47e4bc2ac69a556c60bfaf0-ao-12" height="73.33333" width="87.61905" y="97.14286" x="627.61905" stroke-linecap="null" stroke-linejoin="null" stroke-dasharray="null" stroke="#2D2D2D" fill="#FFEBA2"/>
  <rect id="34d06e38c47e4bc2ac69a556c60bfaf0-ao-13" height="98.09524" width="97.14286" y="55.2381" x="404.7619" stroke-linecap="null" stroke-linejoin="null" stroke-dasharray="null" stroke="#2D2D2D" fill="#FFEBA2"/>
  <rect id="34d06e38c47e4bc2ac69a556c60bfaf0-ao-14" height="72.38095" width="120.95238" y="304.7619" x="372.38095" stroke-linecap="null" stroke-linejoin="null" stroke-dasharray="null" stroke="#2D2D2D" fill="#FFEBA2"/>
  <rect id="34d06e38c47e4bc2ac69a556c60bfaf0-ao-15" height="73.33333" width="85.71429" y="325.71429" x="227.61905" stroke-linecap="null" stroke-linejoin="null" stroke-dasharray="null" stroke="#2D2D2D" fill="#FFEBA2"/>
 </g>
</svg>