<svg xmlns="http://www.w3.org/2000/svg" width="720" height="960">
 <!-- Created with Image Occlusion Enhanced -->
 <g>
  <title>Labels</title>
 </g>
 <g>
  <title>Masks</title>
  <rect id="3fdc6aa77ac940fd8c7dee7024bbf535-ao-1" height="96.61017" width="177.96611" y="85.76264" x="17.28816" stroke="#2D2D2D" fill="#FFEBA2"/>
  <rect id="3fdc6aa77ac940fd8c7dee7024bbf535-ao-2" height="94.91526" width="137.28814" y="72.20332" x="388.47461" stroke="#2D2D2D" fill="#FFEBA2"/>
  <rect id="3fdc6aa77ac940fd8c7dee7024bbf535-ao-3" height="94.91526" width="167.79661" y="172.20332" x="541.01699" stroke="#2D2D2D" fill="#FFEBA2"/>
  <rect id="3fdc6aa77ac940fd8c7dee7024bbf535-ao-4" height="94.91526" width="149.15255" y="312.88129" x="357.96613" stroke="#2D2D2D" fill="#FFEBA2"/>
  <rect id="3fdc6aa77ac940fd8c7dee7024bbf535-ao-5" height="123.72882" width="177.96611" y="431.52536" x="332.5424" stroke="#2D2D2D" fill="#FFEBA2"/>
  <rect id="3fdc6aa77ac940fd8c7dee7024bbf535-ao-6" height="96.61017" width="149.15255" y="433.22028" x="17.28816" stroke="#2D2D2D" fill="#FFEBA2"/>
  <rect id="3fdc6aa77ac940fd8c7dee7024bbf535-ao-7" height="91.52543" width="116.94916" y="638.30503" x="46.10172" stroke="#2D2D2D" fill="#FFEBA2"/>
  <rect id="3fdc6aa77ac940fd8c7dee7024bbf535-ao-8" height="122.0339" width="172.88136" y="658.64401" x="395.25427" stroke="#2D2D2D" fill="#FFEBA2"/>
  <rect id="3fdc6aa77ac940fd8c7dee7024bbf535-ao-9" height="94.91526" width="132.20339" y="843.38978" x="535.93224" stroke="#2D2D2D" fill="#FFEBA2"/>
  <rect id="3fdc6aa77ac940fd8c7dee7024bbf535-ao-10" height="122.0339" width="166.1017" y="814.57622" x="34.23731" stroke="#2D2D2D" fill="#FFEBA2"/>
 </g>
</svg>