<svg xmlns="http://www.w3.org/2000/svg" width="720" height="405">
 <!-- Created with Image Occlusion Enhanced -->
 <g>
  <title>Labels</title>
 </g>
 <g>
  <title>Masks</title>
  <rect id="401d9930caba450896f5c9042739f031-ao-1" height="28.64583" width="46.35417" y="304.89586" x="2.3958" stroke-linecap="null" stroke-linejoin="null" stroke-dasharray="null" stroke="#2D2D2D" fill="#FFEBA2"/>
  <rect id="401d9930caba450896f5c9042739f031-ao-2" height="28.125" width="35.41667" y="367.91669" x="1.35414" stroke-linecap="null" stroke-linejoin="null" stroke-dasharray="null" stroke="#2D2D2D" fill="#FF7E7E" class="qshape"/>
  <rect id="401d9930caba450896f5c9042739f031-ao-3" height="22.91667" width="46.875" y="371.56252" x="150.83331" stroke-linecap="null" stroke-linejoin="null" stroke-dasharray="null" stroke="#2D2D2D" fill="#FFEBA2"/>
  <rect id="401d9930caba450896f5c9042739f031-ao-4" height="28.125" width="41.14583" y="340.83336" x="150.31247" stroke-linecap="null" stroke-linejoin="null" stroke-dasharray="null" stroke="#2D2D2D" fill="#FFEBA2"/>
  <rect id="401d9930caba450896f5c9042739f031-ao-5" height="28.125" width="45.3125" y="310.10419" x="148.74997" stroke-linecap="null" stroke-linejoin="null" stroke-dasharray="null" stroke="#2D2D2D" fill="#FFEBA2"/>
  <rect id="401d9930caba450896f5c9042739f031-ao-6" height="23.4375" width="43.75" y="283.02085" x="148.74997" stroke-linecap="null" stroke-linejoin="null" stroke-dasharray="null" stroke="#2D2D2D" fill="#FFEBA2"/>
  <rect id="401d9930caba450896f5c9042739f031-ao-7" height="24.47917" width="43.75" y="283.54169" x="293.54165" stroke-linecap="null" stroke-linejoin="null" stroke-dasharray="null" stroke="#2D2D2D" fill="#FFEBA2"/>
  <rect id="401d9930caba450896f5c9042739f031-ao-8" height="25.52083" width="41.66667" y="311.66669" x="292.49998" stroke-linecap="null" stroke-linejoin="null" stroke-dasharray="null" stroke="#2D2D2D" fill="#FFEBA2"/>
  <rect id="401d9930caba450896f5c9042739f031-ao-9" height="25.52083" width="43.22917" y="281.97919" x="435.20832" stroke-linecap="null" stroke-linejoin="null" stroke-dasharray="null" stroke="#2D2D2D" fill="#FFEBA2"/>
  <rect id="401d9930caba450896f5c9042739f031-ao-10" height="26.04167" width="60.41667" y="310.10419" x="438.85415" stroke-linecap="null" stroke-linejoin="null" stroke-dasharray="null" stroke="#2D2D2D" fill="#FFEBA2"/>
  <rect id="401d9930caba450896f5c9042739f031-ao-11" height="25.52083" width="37.5" y="284.58335" x="579.99999" stroke-linecap="null" stroke-linejoin="null" stroke-dasharray="null" stroke="#2D2D2D" fill="#FFEBA2"/>
 </g>
</svg>