<svg xmlns="http://www.w3.org/2000/svg" width="720" height="540">
 <!-- Created with Image Occlusion Enhanced -->
 <g>
  <title>Labels</title>
 </g>
 <g>
  <title>Masks</title>
  <rect id="4474468694d94e78acf94e2a1f0ee210-ao-1" height="24.7619" width="50.47619" y="108.57143" x="32.38095" stroke="#2D2D2D" fill="#FFEBA2"/>
  <rect id="4474468694d94e78acf94e2a1f0ee210-ao-2" height="24.7619" width="68.57143" y="136.19048" x="30.47619" stroke="#2D2D2D" fill="#FFEBA2"/>
  
  <rect id="4474468694d94e78acf94e2a1f0ee210-ao-4" height="26.66667" width="46.66667" y="198.09524" x="32.38095" stroke="#2D2D2D" fill="#FFEBA2"/>
  <rect id="4474468694d94e78acf94e2a1f0ee210-ao-5" height="27.61905" width="83.80952" y="230.47619" x="33.33333" stroke="#2D2D2D" fill="#FFEBA2"/>
  <rect id="4474468694d94e78acf94e2a1f0ee210-ao-6" height="20.95238" width="113.33333" y="265.71429" x="31.42857" stroke="#2D2D2D" fill="#FFEBA2"/>
  <rect id="4474468694d94e78acf94e2a1f0ee210-ao-7" height="22.85714" width="105.71429" y="294.28571" x="33.33333" stroke="#2D2D2D" fill="#FFEBA2"/>
  <rect id="4474468694d94e78acf94e2a1f0ee210-ao-8" height="23.80952" width="126.66667" y="325.71429" x="31.42857" stroke="#2D2D2D" fill="#FFEBA2"/>
  <rect id="4474468694d94e78acf94e2a1f0ee210-ao-9" height="19.04762" width="80" y="359.04762" x="31.42857" stroke="#2D2D2D" fill="#FFEBA2"/>
  <rect id="4474468694d94e78acf94e2a1f0ee210-ao-10" height="21.90476" width="104.7619" y="388.57143" x="32.38095" stroke="#2D2D2D" fill="#FFEBA2"/>
  <rect id="4474468694d94e78acf94e2a1f0ee210-ao-11" height="21.90476" width="94.28571" y="420.95238" x="35.2381" stroke="#2D2D2D" fill="#FFEBA2"/>
  <rect id="4474468694d94e78acf94e2a1f0ee210-ao-12" height="19.04762" width="79.04762" y="450.47619" x="34.28571" stroke="#2D2D2D" fill="#FFEBA2"/>
  <rect id="4474468694d94e78acf94e2a1f0ee210-ao-13" height="20" width="98.09524" y="484.7619" x="33.33333" stroke="#2D2D2D" fill="#FFEBA2"/>
  <rect id="4474468694d94e78acf94e2a1f0ee210-ao-14" height="18.09524" width="188.57143" y="162.85714" x="494.28571" stroke-linecap="null" stroke-linejoin="null" stroke-dasharray="null" stroke="#2D2D2D" fill="#FFEBA2"/>
  <rect id="4474468694d94e78acf94e2a1f0ee210-ao-15" height="19.04762" width="194.28571" y="222.85714" x="476.19048" stroke-linecap="null" stroke-linejoin="null" stroke-dasharray="null" stroke="#2D2D2D" fill="#FFEBA2"/>
  <rect id="4474468694d94e78acf94e2a1f0ee210-ao-16" height="18.09524" width="181.90476" y="287.61905" x="499.04762" stroke-linecap="null" stroke-linejoin="null" stroke-dasharray="null" stroke="#2D2D2D" fill="#FFEBA2"/>
  <rect id="4474468694d94e78acf94e2a1f0ee210-ao-17" height="17.14286" width="177.14286" y="351.42857" x="493.33333" stroke-linecap="null" stroke-linejoin="null" stroke-dasharray="null" stroke="#2D2D2D" fill="#FFEBA2"/>
  <rect id="4474468694d94e78acf94e2a1f0ee210-ao-18" height="23.80952" width="119.04762" y="403.80952" x="540.95238" stroke-linecap="null" stroke-linejoin="null" stroke-dasharray="null" stroke="#2D2D2D" fill="#FFEBA2"/>
  <rect id="4474468694d94e78acf94e2a1f0ee210-ao-19" height="22.85714" width="114.28571" y="458.09524" x="541.90476" stroke-linecap="null" stroke-linejoin="null" stroke-dasharray="null" stroke="#2D2D2D" fill="#FFEBA2"/>
  <text xml:space="preserve" text-anchor="middle" font-family="'Arial', 'Helvetica LT Std', Arial, sans-serif" font-size="14" id="4474468694d94e78acf94e2a1f0ee210-ao-20" y="114.28571" x="425.71429" stroke-linecap="null" stroke-linejoin="null" stroke-dasharray="null" stroke-width="0" fill="#000000">addition</text>
  <rect stroke="#2D2D2D" id="4474468694d94e78acf94e2a1f0ee210-ao-21" height="40" width="74.28571" y="118.09524" x="388.57143" stroke-linecap="null" stroke-linejoin="null" stroke-dasharray="null" fill="#FFEBA2"/>
  <rect stroke="#2D2D2D" id="4474468694d94e78acf94e2a1f0ee210-ao-22" height="39.04762" width="79.04762" y="178.09524" x="386.66667" stroke-linecap="null" stroke-linejoin="null" stroke-dasharray="null" fill="#FFEBA2"/>
  <text transform="rotate(-0.009946032427251339 428.57589721659855,170.47917175320842) " xml:space="preserve" text-anchor="middle" font-family="'Arial', 'Helvetica LT Std', Arial, sans-serif" font-size="14" id="4474468694d94e78acf94e2a1f0ee210-ao-23" y="175.2381" x="428.57143" stroke-linecap="null" stroke-linejoin="null" stroke-dasharray="null" stroke-width="0" fill="#000000">subtraction</text>
  <rect id="4474468694d94e78acf94e2a1f0ee210-ao-24" height="45.71429" width="74.28571" y="237.14286" x="387.61905" stroke-linecap="null" stroke-linejoin="null" stroke-dasharray="null" stroke="#2D2D2D" fill="#FFEBA2"/>
  <text xml:space="preserve" text-anchor="middle" font-family="'Arial', 'Helvetica LT Std', Arial, sans-serif" font-size="14" id="4474468694d94e78acf94e2a1f0ee210-ao-25" y="233.33333" x="423.80952" stroke-linecap="null" stroke-linejoin="null" stroke-dasharray="null" stroke-width="0" fill="#000000">multiplication</text>
  <text xml:space="preserve" text-anchor="middle" font-family="'Arial', 'Helvetica LT Std', Arial, sans-serif" font-size="14" id="4474468694d94e78acf94e2a1f0ee210-ao-26" y="296.19048" x="423.80952" stroke-linecap="null" stroke-linejoin="null" stroke-dasharray="null" stroke-width="0" fill="#000000">division</text>
  <rect id="4474468694d94e78acf94e2a1f0ee210-ao-27" height="43.80952" width="69.52381" y="299.04762" x="389.52381" stroke-linecap="null" stroke-linejoin="null" stroke-dasharray="null" stroke="#2D2D2D" fill="#FFEBA2"/>
  <text xml:space="preserve" text-anchor="middle" font-family="'Arial', 'Helvetica LT Std', Arial, sans-serif" font-size="14" id="4474468694d94e78acf94e2a1f0ee210-ao-28" y="377.14286" x="415.2381" stroke-linecap="null" stroke-linejoin="null" stroke-dasharray="null" stroke-width="0" fill="#000000">decimal</text>
  <text xml:space="preserve" text-anchor="middle" font-family="'Arial', 'Helvetica LT Std', Arial, sans-serif" font-size="14" id="4474468694d94e78acf94e2a1f0ee210-ao-29" y="434.28571" x="415.2381" stroke-linecap="null" stroke-linejoin="null" stroke-dasharray="null" stroke-width="0" fill="#000000">fraction</text>
  <rect stroke="#2D2D2D" id="4474468694d94e78acf94e2a1f0ee210-ao-30" height="42.85714" width="62.85714" y="438.09524" x="384.76191" stroke-linecap="null" stroke-linejoin="null" stroke-dasharray="null" fill="#FFEBA2"/>
  <rect id="4474468694d94e78acf94e2a1f0ee210-ao-31" height="39.04762" width="78.09524" y="380.95238" x="375.2381" stroke-linecap="null" stroke-linejoin="null" stroke-dasharray="null" stroke="#2D2D2D" fill="#FFEBA2"/>
 </g>
</svg>