<svg xmlns="http://www.w3.org/2000/svg" width="720" height="540">
 <!-- Created with Image Occlusion Enhanced -->
 <g>
  <title>Labels</title>
 </g>
 <g>
  <title>Masks</title>
  <rect stroke="#2D2D2D" id="78562f1cd79449838e30121bcf0217fe-ao-1" height="96.61017" width="230.50848" y="780.67791" x="5.42375" stroke-linecap="null" stroke-linejoin="null" stroke-dasharray="null" fill="#FFEBA2"/>
  <rect id="78562f1cd79449838e30121bcf0217fe-ao-2" height="122.0339" width="144.0678" y="643.38977" x="178.30511" stroke-linecap="null" stroke-linejoin="null" stroke-dasharray="null" stroke="#2D2D2D" fill="#FFEBA2"/>
  <rect id="78562f1cd79449838e30121bcf0217fe-ao-3" height="91.52543" width="142.37289" y="768.81351" x="337.62715" stroke-linecap="null" stroke-linejoin="null" stroke-dasharray="null" stroke="#2D2D2D" fill="#FFEBA2"/>
  <rect id="78562f1cd79449838e30121bcf0217fe-ao-4" height="96.61017" width="118.64407" y="790.8474" x="535.93224" stroke-linecap="null" stroke-linejoin="null" stroke-dasharray="null" stroke="#2D2D2D" fill="#FFEBA2"/>
  <rect id="78562f1cd79449838e30121bcf0217fe-ao-5" height="71.42857" width="92.38095" y="117.14286" x="8.57143" stroke-linecap="null" stroke-linejoin="null" stroke-dasharray="null" stroke="#2D2D2D" fill="#FFEBA2"/>
  <rect id="78562f1cd79449838e30121bcf0217fe-ao-6" height="72.38095" width="74.28571" y="170.47619" x="145.71429" stroke-linecap="null" stroke-linejoin="null" stroke-dasharray="null" stroke="#2D2D2D" fill="#FFEBA2"/>
  <rect id="78562f1cd79449838e30121bcf0217fe-ao-7" height="73.33333" width="79.04762" y="278.09524" x="141.90476" stroke-linecap="null" stroke-linejoin="null" stroke-dasharray="null" stroke="#2D2D2D" fill="#FFEBA2"/>
  <rect id="78562f1cd79449838e30121bcf0217fe-ao-8" height="69.52381" width="72.38095" y="379.04762" x="46.66667" stroke-linecap="null" stroke-linejoin="null" stroke-dasharray="null" stroke="#2D2D2D" fill="#FFEBA2"/>
  <rect id="78562f1cd79449838e30121bcf0217fe-ao-9" height="68.57143" width="83.80952" y="465.71429" x="210.47619" stroke-linecap="null" stroke-linejoin="null" stroke-dasharray="null" stroke="#2D2D2D" fill="#FFEBA2"/>
  <rect id="78562f1cd79449838e30121bcf0217fe-ao-10" height="70.47619" width="74.28571" y="344.7619" x="314.28571" stroke-linecap="null" stroke-linejoin="null" stroke-dasharray="null" stroke="#2D2D2D" fill="#FFEBA2"/>
  <rect id="78562f1cd79449838e30121bcf0217fe-ao-11" height="73.33333" width="72.38095" y="346.66667" x="422.85714" stroke-linecap="null" stroke-linejoin="null" stroke-dasharray="null" stroke="#2D2D2D" fill="#FFEBA2"/>
  <rect id="78562f1cd79449838e30121bcf0217fe-ao-12" height="73.33333" width="108.57143" y="462.85714" x="457.14286" stroke-linecap="null" stroke-linejoin="null" stroke-dasharray="null" stroke="#2D2D2D" fill="#FFEBA2"/>
  <rect id="78562f1cd79449838e30121bcf0217fe-ao-13" height="71.42857" width="106.66667" y="249.52381" x="536.19048" stroke-linecap="null" stroke-linejoin="null" stroke-dasharray="null" stroke="#2D2D2D" fill="#FFEBA2"/>
  <rect id="78562f1cd79449838e30121bcf0217fe-ao-14" height="73.33333" width="77.14286" y="128.57143" x="644.7619" stroke-linecap="null" stroke-linejoin="null" stroke-dasharray="null" stroke="#2D2D2D" fill="#FFEBA2"/>
  <rect id="78562f1cd79449838e30121bcf0217fe-ao-15" height="71.42857" width="80" y="90.47619" x="363.80952" stroke-linecap="null" stroke-linejoin="null" stroke-dasharray="null" stroke="#2D2D2D" fill="#FFEBA2"/>
  
 </g>
</svg>