<svg xmlns="http://www.w3.org/2000/svg" width="720" height="960">
 <!-- Created with Image Occlusion Enhanced -->
 <g>
  <title>Labels</title>
 </g>
 <g>
  <title>Masks</title>
  <rect id="82dba6e5bdc34926a4fc6906256668de-ao-1" height="74.57627" width="89.83051" y="119.66094" x="22.3729" stroke-linecap="null" stroke-linejoin="null" stroke-dasharray="null" stroke="#2D2D2D" fill="#FFEBA2"/>
  <rect id="82dba6e5bdc34926a4fc6906256668de-ao-2" height="76.27119" width="128.81356" y="95.93213" x="268.13562" stroke-linecap="null" stroke-linejoin="null" stroke-dasharray="null" stroke="#2D2D2D" fill="#FFEBA2"/>
  <rect id="82dba6e5bdc34926a4fc6906256668de-ao-3" height="77.9661" width="125.42373" y="199.32196" x="591.86444" stroke-linecap="null" stroke-linejoin="null" stroke-dasharray="null" stroke="#2D2D2D" fill="#FFEBA2"/>
  <rect id="82dba6e5bdc34926a4fc6906256668de-ao-4" height="77.9661" width="98.30509" y="55.25416" x="596.94919" stroke-linecap="null" stroke-linejoin="null" stroke-dasharray="null" stroke="#2D2D2D" fill="#FFEBA2"/>
  <rect id="82dba6e5bdc34926a4fc6906256668de-ao-5" height="81.35593" width="94.91526" y="423.05078" x="620.678" stroke-linecap="null" stroke-linejoin="null" stroke-dasharray="null" stroke="#2D2D2D" fill="#FFEBA2"/>
  <rect id="82dba6e5bdc34926a4fc6906256668de-ao-6" height="79.66102" width="108.47458" y="624.7457" x="596.94919" stroke-linecap="null" stroke-linejoin="null" stroke-dasharray="null" stroke="#2D2D2D" fill="#FFEBA2"/>
  <rect id="82dba6e5bdc34926a4fc6906256668de-ao-7" height="77.9661" width="103.38983" y="867.11859" x="600.33902" stroke-linecap="null" stroke-linejoin="null" stroke-dasharray="null" stroke="#2D2D2D" fill="#FFEBA2"/>
  <rect id="82dba6e5bdc34926a4fc6906256668de-ao-8" height="79.66102" width="108.47458" y="863.72876" x="352.88139" stroke-linecap="null" stroke-linejoin="null" stroke-dasharray="null" stroke="#2D2D2D" fill="#FF7E7E" class="qshape"/>
  <rect id="82dba6e5bdc34926a4fc6906256668de-ao-9" height="83.05085" width="106.77966" y="790.8474" x="93.55935" stroke-linecap="null" stroke-linejoin="null" stroke-dasharray="null" stroke="#2D2D2D" fill="#FFEBA2"/>
  <rect id="82dba6e5bdc34926a4fc6906256668de-ao-10" height="74.57627" width="86.44068" y="646.7796" x="261.35596" stroke-linecap="null" stroke-linejoin="null" stroke-dasharray="null" stroke="#2D2D2D" fill="#FFEBA2"/>
  <rect id="82dba6e5bdc34926a4fc6906256668de-ao-11" height="81.35593" width="115.25424" y="555.25418" x="24.06782" stroke-linecap="null" stroke-linejoin="null" stroke-dasharray="null" stroke="#2D2D2D" fill="#FFEBA2"/>
  <rect id="82dba6e5bdc34926a4fc6906256668de-ao-12" height="76.27119" width="127.11865" y="367.11858" x="130.84748" stroke-linecap="null" stroke-linejoin="null" stroke-dasharray="null" stroke="#2D2D2D" fill="#FFEBA2"/>
  <rect id="82dba6e5bdc34926a4fc6906256668de-ao-13" height="77.9661" width="106.77966" y="401.01688" x="352.88139" stroke-linecap="null" stroke-linejoin="null" stroke-dasharray="null" stroke="#2D2D2D" fill="#FFEBA2"/>
 </g>
</svg>