<svg xmlns="http://www.w3.org/2000/svg" width="720" height="960">
 <!-- Created with Image Occlusion Enhanced -->
 <g>
  <title>Labels</title>
 </g>
 <g>
  <title>Masks</title>
  <rect stroke="#2D2D2D" id="8cddbd5a8ea14c9a85875f9fd13dde49-ao-1" height="96.61017" width="230.50848" y="780.67791" x="5.42375" stroke-linecap="null" stroke-linejoin="null" stroke-dasharray="null" fill="#FFEBA2"/>
  <rect id="8cddbd5a8ea14c9a85875f9fd13dde49-ao-2" height="96.61017" width="177.96611" y="158.644" x="8.81358" stroke-linecap="null" stroke-linejoin="null" stroke-dasharray="null" stroke="#2D2D2D" fill="#FFEBA2"/>
  <rect id="8cddbd5a8ea14c9a85875f9fd13dde49-ao-3" height="93.22034" width="110.16949" y="73.89823" x="313.89833" stroke-linecap="null" stroke-linejoin="null" stroke-dasharray="null" stroke="#2D2D2D" fill="#FFEBA2"/>
  <rect id="8cddbd5a8ea14c9a85875f9fd13dde49-ao-4" height="130.50848" width="135.59322" y="77.28806" x="571.52546" stroke-linecap="null" stroke-linejoin="null" stroke-dasharray="null" stroke="#2D2D2D" fill="#FFEBA2"/>
  <rect id="8cddbd5a8ea14c9a85875f9fd13dde49-ao-5" height="91.52543" width="123.72882" y="273.89824" x="537.62715" stroke-linecap="null" stroke-linejoin="null" stroke-dasharray="null" stroke="#2D2D2D" fill="#FFEBA2"/>
  
  <rect id="8cddbd5a8ea14c9a85875f9fd13dde49-ao-7" height="93.22034" width="159.32204" y="336.6101" x="283.38986" stroke-linecap="null" stroke-linejoin="null" stroke-dasharray="null" stroke="#2D2D2D" fill="#FFEBA2"/>
  <rect id="8cddbd5a8ea14c9a85875f9fd13dde49-ao-8" height="94.91526" width="145.76272" y="472.20333" x="205.42376" stroke-linecap="null" stroke-linejoin="null" stroke-dasharray="null" stroke="#2D2D2D" fill="#FFEBA2"/>
  <rect id="8cddbd5a8ea14c9a85875f9fd13dde49-ao-9" height="91.52543" width="203.38984" y="406.10163" x="10.5085" stroke-linecap="null" stroke-linejoin="null" stroke-dasharray="null" stroke="#2D2D2D" fill="#FFEBA2"/>
  <rect id="8cddbd5a8ea14c9a85875f9fd13dde49-ao-10" height="122.0339" width="144.0678" y="643.38977" x="178.30511" stroke-linecap="null" stroke-linejoin="null" stroke-dasharray="null" stroke="#2D2D2D" fill="#FFEBA2"/>
  <rect id="8cddbd5a8ea14c9a85875f9fd13dde49-ao-11" height="91.52543" width="142.37289" y="768.81351" x="337.62715" stroke-linecap="null" stroke-linejoin="null" stroke-dasharray="null" stroke="#2D2D2D" fill="#FFEBA2"/>
  <rect id="8cddbd5a8ea14c9a85875f9fd13dde49-ao-12" height="96.61017" width="118.64407" y="790.8474" x="535.93224" stroke-linecap="null" stroke-linejoin="null" stroke-dasharray="null" stroke="#2D2D2D" fill="#FFEBA2"/>
 </g>
</svg>