<svg xmlns="http://www.w3.org/2000/svg" width="720" height="540">
 <!-- Created with Image Occlusion Enhanced -->
 <g>
  <title>Labels</title>
 </g>
 <g>
  <title>Masks</title>
  <rect id="ae7361dc3ec04903b9e6e7312a2c805f-ao-1" height="50.47619" width="78.09524" y="36.19048" x="191.42857" stroke="#2D2D2D" fill="#FFEBA2"/>
  <rect id="ae7361dc3ec04903b9e6e7312a2c805f-ao-2" height="51.42857" width="86.66667" y="36.19048" x="280" stroke="#2D2D2D" fill="#FFEBA2"/>
  <rect id="ae7361dc3ec04903b9e6e7312a2c805f-ao-3" height="50.47619" width="76.19048" y="36.19048" x="382.85714" stroke="#2D2D2D" fill="#FFEBA2"/>
  <rect id="ae7361dc3ec04903b9e6e7312a2c805f-ao-4" height="49.52381" width="60" y="36.19048" x="481.90476" stroke="#2D2D2D" fill="#FFEBA2"/>
  <rect id="ae7361dc3ec04903b9e6e7312a2c805f-ao-5" height="64.7619" width="79.04762" y="97.14286" x="562.85714" stroke="#2D2D2D" fill="#FFEBA2"/>
  <rect id="ae7361dc3ec04903b9e6e7312a2c805f-ao-6" height="53.33333" width="92.38095" y="258.09524" x="440" stroke="#2D2D2D" fill="#FFEBA2"/>
  <rect id="ae7361dc3ec04903b9e6e7312a2c805f-ao-7" height="52.38095" width="75.2381" y="459.04762" x="612.38095" stroke="#2D2D2D" fill="#FFEBA2"/>
  
  <rect id="ae7361dc3ec04903b9e6e7312a2c805f-ao-9" height="52.38095" width="80" y="283.80952" x="343.80952" stroke="#2D2D2D" fill="#FFEBA2"/>
  <rect id="ae7361dc3ec04903b9e6e7312a2c805f-ao-10" height="48.57143" width="75.2381" y="216.19048" x="293.33333" stroke="#2D2D2D" fill="#FFEBA2"/>
  <rect id="ae7361dc3ec04903b9e6e7312a2c805f-ao-11" height="62.85714" width="72.38095" y="268.57143" x="76.19048" stroke="#2D2D2D" fill="#FFEBA2"/>
  <rect id="ae7361dc3ec04903b9e6e7312a2c805f-ao-12" height="48.57143" width="76.19048" y="98.09524" x="21.90476" stroke="#2D2D2D" fill="#FFEBA2"/>
 </g>
</svg>