<svg xmlns="http://www.w3.org/2000/svg" width="720" height="960">
 <!-- Created with Image Occlusion Enhanced -->
 <g>
  <title>Labels</title>
 </g>
 <g>
  <title>Masks</title>
  <rect id="c264f8e804f74f16989f71e146ebc042-ao-1" height="94.91526" width="128.81356" y="72.20332" x="54.57629" stroke="#2D2D2D" fill="#FFEBA2"/>
  <rect id="c264f8e804f74f16989f71e146ebc042-ao-2" height="94.91526" width="127.11865" y="319.66095" x="207.11867" stroke="#2D2D2D" fill="#FFEBA2"/>
  <rect id="c264f8e804f74f16989f71e146ebc042-ao-3" height="94.91526" width="183.05085" y="324.7457" x="529.15258" stroke="#2D2D2D" fill="#FFEBA2"/>
  <rect id="c264f8e804f74f16989f71e146ebc042-ao-4" height="125.42373" width="179.66102" y="65.42365" x="396.94918" stroke="#2D2D2D" fill="#FFEBA2"/>
  
  <rect id="c264f8e804f74f16989f71e146ebc042-ao-6" height="94.91526" width="196.61018" y="487.45757" x="215.59325" stroke="#2D2D2D" fill="#FFEBA2"/>
  <rect id="c264f8e804f74f16989f71e146ebc042-ao-7" height="98.30509" width="159.32204" y="462.03384" x="515.59326" stroke="#2D2D2D" fill="#FFEBA2"/>
  <rect id="c264f8e804f74f16989f71e146ebc042-ao-8" height="96.61017" width="191.52543" y="856.9491" x="439.32207" stroke="#2D2D2D" fill="#FFEBA2"/>
  <rect id="c264f8e804f74f16989f71e146ebc042-ao-9" height="93.22034" width="183.05085" y="855.25419" x="164.74579" stroke="#2D2D2D" fill="#FFEBA2"/>
  <rect id="c264f8e804f74f16989f71e146ebc042-ao-10" height="98.30509" width="106.77966" y="755.25418" x="22.3729" stroke="#2D2D2D" fill="#FFEBA2"/>
 </g>
</svg>